Adobe After Effects v13.7.1 Windows 64 render log for project “icon-animations.aep”

Rendering started on 1/9/2017 at 10:56:43 PM

  1/9/2017 10:56:43 PM: Starting composition “choptank-ui--ux_close-icon”.

  Output To: M:\apps\dev\sublime-text\sublime-text\3126\Data\Packages\choptank-ui\src\images\animations\icons\close\close-[##].png    1/9/2017 10:56:43 PM: Finished composition “choptank-ui--ux_close-icon”.


  Total Time Elapsed: 0 Seconds
Log closed on 1/9/2017 at 10:56:43 PM
